^C:\USERS\HOME-PC\DOCUMENTS\VISUAL STUDIO 2015\PROJECTS\NEKKITEST2\LINEARINTERPLATE3\LINEARINTERPLATE3\INTERPOLATE.CPP
C:\USERS\HOME-PC\DOCUMENTS\VISUAL STUDIO 2015\PROJECTS\NEKKITEST2\LINEARINTERPLATE3\LINEARINTERPLATE3\DEBUG\VC140.PDB
C:\USERS\HOME-PC\DOCUMENTS\VISUAL STUDIO 2015\PROJECTS\NEKKITEST2\LINEARINTERPLATE3\LINEARINTERPLATE3\DEBUG\VC140.IDB
C:\USERS\HOME-PC\DOCUMENTS\VISUAL STUDIO 2015\PROJECTS\NEKKITEST2\LINEARINTERPLATE3\LINEARINTERPLATE3\DEBUG\INTERPOLATE.OBJ
^C:\USERS\HOME-PC\DOCUMENTS\VISUAL STUDIO 2015\PROJECTS\NEKKITEST2\NEKKITESTC\LINEARINTERPLATE3\LINEARINTERPLATE3\INTERPOLATE.CPP
C:\USERS\HOME-PC\DOCUMENTS\VISUAL STUDIO 2015\PROJECTS\NEKKITEST2\NEKKITESTC\LINEARINTERPLATE3\LINEARINTERPLATE3\DEBUG\VC140.PDB
C:\USERS\HOME-PC\DOCUMENTS\VISUAL STUDIO 2015\PROJECTS\NEKKITEST2\NEKKITESTC\LINEARINTERPLATE3\LINEARINTERPLATE3\DEBUG\VC140.IDB
C:\USERS\HOME-PC\DOCUMENTS\VISUAL STUDIO 2015\PROJECTS\NEKKITEST2\NEKKITESTC\LINEARINTERPLATE3\LINEARINTERPLATE3\DEBUG\INTERPOLATE.OBJ
