^C:\USERS\HOME-PC\DOCUMENTS\VISUAL STUDIO 2015\PROJECTS\NEKKITEST2\NEKKITESTC\PROBLEM2\PROBLEM2\DEBUG\.NETFRAMEWORK,VERSION=V4.5.2.ASSEMBLYATTRIBUTES.OBJ|C:\USERS\HOME-PC\DOCUMENTS\VISUAL STUDIO 2015\PROJECTS\NEKKITEST2\NEKKITESTC\PROBLEM2\PROBLEM2\DEBUG\MYFORM.OBJ
C:\USERS\HOME-PC\DOCUMENTS\VISUAL STUDIO 2015\PROJECTS\NEKKITEST2\NEKKITESTC\PROBLEM2\DEBUG\PROBLEM2.EXE
C:\USERS\HOME-PC\DOCUMENTS\VISUAL STUDIO 2015\PROJECTS\NEKKITEST2\NEKKITESTC\PROBLEM2\DEBUG\PROBLEM2.PDB
