^C:\USERS\HOME-PC\DOCUMENTS\VISUAL STUDIO 2015\PROJECTS\NEKKITEST2\CUBESPLINEINTERPOLATE\CUBESPLINEINTERPOLATE\STDAFX.CPP
/c /AI"C:\PROGRAM FILES (X86)\REFERENCE ASSEMBLIES\MICROSOFT\FRAMEWORK\.NETFRAMEWORK\V4.5.2\\" /AI"C:\PROGRAM FILES (X86)\WINDOWS KITS\8.1\REFERENCES\COMMONCONFIGURATION\NEUTRAL" /AI"C:\PROGRAM FILES (X86)\REFERENCE ASSEMBLIES\MICROSOFT\FRAMEWORK\.NETFRAMEWORK\V4.5.2\FACADES\\" /Zi /clr /nologo /W3 /WX- /Od /Oy- /D WIN32 /D _DEBUG /D _WINDLL /D _UNICODE /D UNICODE /EHa /MDd /GS /fp:precise /Zc:wchar_t /Zc:forScope /Zc:inline /Yc"stdafx.h" /Fp"DEBUG\CUBESPLINEINTERPOLATE.PCH" /Fo"DEBUG\\" /Fd"DEBUG\VC140.PDB" /TP /FU"C:\PROGRAM FILES (X86)\REFERENCE ASSEMBLIES\MICROSOFT\FRAMEWORK\.NETFRAMEWORK\V4.5.2\MSCORLIB.DLL" /FU"C:\PROGRAM FILES (X86)\REFERENCE ASSEMBLIES\MICROSOFT\FRAMEWORK\.NETFRAMEWORK\V4.5.2\SYSTEM.DATA.DLL" /FU"C:\PROGRAM FILES (X86)\REFERENCE ASSEMBLIES\MICROSOFT\FRAMEWORK\.NETFRAMEWORK\V4.5.2\SYSTEM.DLL" /FU"C:\PROGRAM FILES (X86)\REFERENCE ASSEMBLIES\MICROSOFT\FRAMEWORK\.NETFRAMEWORK\V4.5.2\SYSTEM.XML.DLL" /analyze- /clr:nostdlib  C:\USERS\HOME-PC\DOCUMENTS\VISUAL STUDIO 2015\PROJECTS\NEKKITEST2\CUBESPLINEINTERPOLATE\CUBESPLINEINTERPOLATE\STDAFX.CPP
^C:\USERS\HOME-PC\DOCUMENTS\VISUAL STUDIO 2015\PROJECTS\NEKKITEST2\CUBESPLINEINTERPOLATE\CUBESPLINEINTERPOLATE\ASSEMBLYINFO.CPP
/c /AI"C:\PROGRAM FILES (X86)\REFERENCE ASSEMBLIES\MICROSOFT\FRAMEWORK\.NETFRAMEWORK\V4.5.2\\" /AI"C:\PROGRAM FILES (X86)\WINDOWS KITS\8.1\REFERENCES\COMMONCONFIGURATION\NEUTRAL" /AI"C:\PROGRAM FILES (X86)\REFERENCE ASSEMBLIES\MICROSOFT\FRAMEWORK\.NETFRAMEWORK\V4.5.2\FACADES\\" /Zi /clr /nologo /W3 /WX- /Od /Oy- /D WIN32 /D _DEBUG /D _WINDLL /D _UNICODE /D UNICODE /EHa /MDd /GS /fp:precise /Zc:wchar_t /Zc:forScope /Zc:inline /Yu"stdafx.h" /Fp"DEBUG\CUBESPLINEINTERPOLATE.PCH" /Fo"DEBUG\\" /Fd"DEBUG\VC140.PDB" /TP /FU"C:\PROGRAM FILES (X86)\REFERENCE ASSEMBLIES\MICROSOFT\FRAMEWORK\.NETFRAMEWORK\V4.5.2\MSCORLIB.DLL" /FU"C:\PROGRAM FILES (X86)\REFERENCE ASSEMBLIES\MICROSOFT\FRAMEWORK\.NETFRAMEWORK\V4.5.2\SYSTEM.DATA.DLL" /FU"C:\PROGRAM FILES (X86)\REFERENCE ASSEMBLIES\MICROSOFT\FRAMEWORK\.NETFRAMEWORK\V4.5.2\SYSTEM.DLL" /FU"C:\PROGRAM FILES (X86)\REFERENCE ASSEMBLIES\MICROSOFT\FRAMEWORK\.NETFRAMEWORK\V4.5.2\SYSTEM.XML.DLL" /analyze- /clr:nostdlib  C:\USERS\HOME-PC\DOCUMENTS\VISUAL STUDIO 2015\PROJECTS\NEKKITEST2\CUBESPLINEINTERPOLATE\CUBESPLINEINTERPOLATE\ASSEMBLYINFO.CPP
^C:\USERS\HOME-PC\APPDATA\LOCAL\TEMP\.NETFRAMEWORK,VERSION=V4.5.2.ASSEMBLYATTRIBUTES.CPP
/c /Zi /clr /nologo /W3 /WX- /Od /Oy- /D WIN32 /D _DEBUG /D _WINDLL /D _UNICODE /D UNICODE /EHa /MDd /GS /fp:precise /Zc:wchar_t /Zc:forScope /Zc:inline /Fp"DEBUG\CUBESPLINEINTERPOLATE.PCH" /Fa"DEBUG\\" /Fo"DEBUG\\" /Fd"DEBUG\VC140.PDB" /analyze- C:\USERS\HOME-PC\APPDATA\LOCAL\TEMP\.NETFRAMEWORK,VERSION=V4.5.2.ASSEMBLYATTRIBUTES.CPP
^C:\USERS\HOME-PC\DOCUMENTS\VISUAL STUDIO 2015\PROJECTS\NEKKITEST2\CUBESPLINEINTERPOLATE\CUBESPLINEINTERPOLATE\CUBESPLINEINTERPOLATE.CPP
/c /AI"C:\PROGRAM FILES (X86)\REFERENCE ASSEMBLIES\MICROSOFT\FRAMEWORK\.NETFRAMEWORK\V4.5.2\\" /AI"C:\PROGRAM FILES (X86)\WINDOWS KITS\8.1\REFERENCES\COMMONCONFIGURATION\NEUTRAL" /AI"C:\PROGRAM FILES (X86)\REFERENCE ASSEMBLIES\MICROSOFT\FRAMEWORK\.NETFRAMEWORK\V4.5.2\FACADES\\" /Zi /clr /nologo /W3 /WX- /Od /Oy- /D WIN32 /D _DEBUG /D _WINDLL /D _UNICODE /D UNICODE /EHa /MDd /GS /fp:precise /Zc:wchar_t /Zc:forScope /Zc:inline /Yu"stdafx.h" /Fp"DEBUG\CUBESPLINEINTERPOLATE.PCH" /Fo"DEBUG\\" /Fd"DEBUG\VC140.PDB" /TP /FU"C:\PROGRAM FILES (X86)\REFERENCE ASSEMBLIES\MICROSOFT\FRAMEWORK\.NETFRAMEWORK\V4.5.2\MSCORLIB.DLL" /FU"C:\PROGRAM FILES (X86)\REFERENCE ASSEMBLIES\MICROSOFT\FRAMEWORK\.NETFRAMEWORK\V4.5.2\SYSTEM.DATA.DLL" /FU"C:\PROGRAM FILES (X86)\REFERENCE ASSEMBLIES\MICROSOFT\FRAMEWORK\.NETFRAMEWORK\V4.5.2\SYSTEM.DLL" /FU"C:\PROGRAM FILES (X86)\REFERENCE ASSEMBLIES\MICROSOFT\FRAMEWORK\.NETFRAMEWORK\V4.5.2\SYSTEM.XML.DLL" /analyze- /clr:nostdlib  C:\USERS\HOME-PC\DOCUMENTS\VISUAL STUDIO 2015\PROJECTS\NEKKITEST2\CUBESPLINEINTERPOLATE\CUBESPLINEINTERPOLATE\CUBESPLINEINTERPOLATE.CPP
^C:\USERS\HOME-PC\DOCUMENTS\VISUAL STUDIO 2015\PROJECTS\NEKKITEST2\NEKKITESTC\CUBESPLINEINTERPOLATE\CUBESPLINEINTERPOLATE\STDAFX.CPP
/c /AI"C:\PROGRAM FILES (X86)\REFERENCE ASSEMBLIES\MICROSOFT\FRAMEWORK\.NETFRAMEWORK\V4.5.2\\" /AI"C:\PROGRAM FILES (X86)\WINDOWS KITS\8.1\REFERENCES\COMMONCONFIGURATION\NEUTRAL" /AI"C:\PROGRAM FILES (X86)\REFERENCE ASSEMBLIES\MICROSOFT\FRAMEWORK\.NETFRAMEWORK\V4.5.2\FACADES\\" /Zi /clr /nologo /W3 /WX- /Od /Oy- /D WIN32 /D _DEBUG /D _WINDLL /D _UNICODE /D UNICODE /EHa /MDd /GS /fp:precise /Zc:wchar_t /Zc:forScope /Zc:inline /Yc"stdafx.h" /Fp"DEBUG\CUBESPLINEINTERPOLATE.PCH" /Fo"DEBUG\\" /Fd"DEBUG\VC140.PDB" /TP /FU"C:\PROGRAM FILES (X86)\REFERENCE ASSEMBLIES\MICROSOFT\FRAMEWORK\.NETFRAMEWORK\V4.5.2\MSCORLIB.DLL" /FU"C:\PROGRAM FILES (X86)\REFERENCE ASSEMBLIES\MICROSOFT\FRAMEWORK\.NETFRAMEWORK\V4.5.2\SYSTEM.DATA.DLL" /FU"C:\PROGRAM FILES (X86)\REFERENCE ASSEMBLIES\MICROSOFT\FRAMEWORK\.NETFRAMEWORK\V4.5.2\SYSTEM.DLL" /FU"C:\PROGRAM FILES (X86)\REFERENCE ASSEMBLIES\MICROSOFT\FRAMEWORK\.NETFRAMEWORK\V4.5.2\SYSTEM.XML.DLL" /analyze- /clr:nostdlib  C:\USERS\HOME-PC\DOCUMENTS\VISUAL STUDIO 2015\PROJECTS\NEKKITEST2\NEKKITESTC\CUBESPLINEINTERPOLATE\CUBESPLINEINTERPOLATE\STDAFX.CPP
^C:\USERS\HOME-PC\DOCUMENTS\VISUAL STUDIO 2015\PROJECTS\NEKKITEST2\NEKKITESTC\CUBESPLINEINTERPOLATE\CUBESPLINEINTERPOLATE\ASSEMBLYINFO.CPP
/c /AI"C:\PROGRAM FILES (X86)\REFERENCE ASSEMBLIES\MICROSOFT\FRAMEWORK\.NETFRAMEWORK\V4.5.2\\" /AI"C:\PROGRAM FILES (X86)\WINDOWS KITS\8.1\REFERENCES\COMMONCONFIGURATION\NEUTRAL" /AI"C:\PROGRAM FILES (X86)\REFERENCE ASSEMBLIES\MICROSOFT\FRAMEWORK\.NETFRAMEWORK\V4.5.2\FACADES\\" /Zi /clr /nologo /W3 /WX- /Od /Oy- /D WIN32 /D _DEBUG /D _WINDLL /D _UNICODE /D UNICODE /EHa /MDd /GS /fp:precise /Zc:wchar_t /Zc:forScope /Zc:inline /Yu"stdafx.h" /Fp"DEBUG\CUBESPLINEINTERPOLATE.PCH" /Fo"DEBUG\\" /Fd"DEBUG\VC140.PDB" /TP /FU"C:\PROGRAM FILES (X86)\REFERENCE ASSEMBLIES\MICROSOFT\FRAMEWORK\.NETFRAMEWORK\V4.5.2\MSCORLIB.DLL" /FU"C:\PROGRAM FILES (X86)\REFERENCE ASSEMBLIES\MICROSOFT\FRAMEWORK\.NETFRAMEWORK\V4.5.2\SYSTEM.DATA.DLL" /FU"C:\PROGRAM FILES (X86)\REFERENCE ASSEMBLIES\MICROSOFT\FRAMEWORK\.NETFRAMEWORK\V4.5.2\SYSTEM.DLL" /FU"C:\PROGRAM FILES (X86)\REFERENCE ASSEMBLIES\MICROSOFT\FRAMEWORK\.NETFRAMEWORK\V4.5.2\SYSTEM.XML.DLL" /analyze- /clr:nostdlib  C:\USERS\HOME-PC\DOCUMENTS\VISUAL STUDIO 2015\PROJECTS\NEKKITEST2\NEKKITESTC\CUBESPLINEINTERPOLATE\CUBESPLINEINTERPOLATE\ASSEMBLYINFO.CPP
^C:\USERS\HOME-PC\DOCUMENTS\VISUAL STUDIO 2015\PROJECTS\NEKKITEST2\NEKKITESTC\CUBESPLINEINTERPOLATE\CUBESPLINEINTERPOLATE\CUBESPLINEINTERPOLATE.CPP
/c /AI"C:\PROGRAM FILES (X86)\REFERENCE ASSEMBLIES\MICROSOFT\FRAMEWORK\.NETFRAMEWORK\V4.5.2\\" /AI"C:\PROGRAM FILES (X86)\WINDOWS KITS\8.1\REFERENCES\COMMONCONFIGURATION\NEUTRAL" /AI"C:\PROGRAM FILES (X86)\REFERENCE ASSEMBLIES\MICROSOFT\FRAMEWORK\.NETFRAMEWORK\V4.5.2\FACADES\\" /Zi /clr /nologo /W3 /WX- /Od /Oy- /D WIN32 /D _DEBUG /D _WINDLL /D _UNICODE /D UNICODE /EHa /MDd /GS /fp:precise /Zc:wchar_t /Zc:forScope /Zc:inline /Yu"stdafx.h" /Fp"DEBUG\CUBESPLINEINTERPOLATE.PCH" /Fo"DEBUG\\" /Fd"DEBUG\VC140.PDB" /TP /FU"C:\PROGRAM FILES (X86)\REFERENCE ASSEMBLIES\MICROSOFT\FRAMEWORK\.NETFRAMEWORK\V4.5.2\MSCORLIB.DLL" /FU"C:\PROGRAM FILES (X86)\REFERENCE ASSEMBLIES\MICROSOFT\FRAMEWORK\.NETFRAMEWORK\V4.5.2\SYSTEM.DATA.DLL" /FU"C:\PROGRAM FILES (X86)\REFERENCE ASSEMBLIES\MICROSOFT\FRAMEWORK\.NETFRAMEWORK\V4.5.2\SYSTEM.DLL" /FU"C:\PROGRAM FILES (X86)\REFERENCE ASSEMBLIES\MICROSOFT\FRAMEWORK\.NETFRAMEWORK\V4.5.2\SYSTEM.XML.DLL" /analyze- /clr:nostdlib  C:\USERS\HOME-PC\DOCUMENTS\VISUAL STUDIO 2015\PROJECTS\NEKKITEST2\NEKKITESTC\CUBESPLINEINTERPOLATE\CUBESPLINEINTERPOLATE\CUBESPLINEINTERPOLATE.CPP
