^C:\USERS\HOME-PC\DOCUMENTS\VISUAL STUDIO 2015\PROJECTS\NEKKITEST2\CUBESPLINEINTERPOLATE\CUBESPLINEINTERPOLATE\STDAFX.CPP
C:\USERS\HOME-PC\DOCUMENTS\VISUAL STUDIO 2015\PROJECTS\NEKKITEST2\CUBESPLINEINTERPOLATE\CUBESPLINEINTERPOLATE\DEBUG\CUBESPLINEINTERPOLATE.PCH
C:\USERS\HOME-PC\DOCUMENTS\VISUAL STUDIO 2015\PROJECTS\NEKKITEST2\CUBESPLINEINTERPOLATE\CUBESPLINEINTERPOLATE\DEBUG\VC140.PDB
C:\USERS\HOME-PC\DOCUMENTS\VISUAL STUDIO 2015\PROJECTS\NEKKITEST2\CUBESPLINEINTERPOLATE\CUBESPLINEINTERPOLATE\DEBUG\STDAFX.OBJ
^C:\USERS\HOME-PC\DOCUMENTS\VISUAL STUDIO 2015\PROJECTS\NEKKITEST2\CUBESPLINEINTERPOLATE\CUBESPLINEINTERPOLATE\ASSEMBLYINFO.CPP|C:\USERS\HOME-PC\DOCUMENTS\VISUAL STUDIO 2015\PROJECTS\NEKKITEST2\CUBESPLINEINTERPOLATE\CUBESPLINEINTERPOLATE\CUBESPLINEINTERPOLATE.CPP
C:\USERS\HOME-PC\DOCUMENTS\VISUAL STUDIO 2015\PROJECTS\NEKKITEST2\CUBESPLINEINTERPOLATE\CUBESPLINEINTERPOLATE\DEBUG\VC140.PDB
C:\USERS\HOME-PC\DOCUMENTS\VISUAL STUDIO 2015\PROJECTS\NEKKITEST2\CUBESPLINEINTERPOLATE\CUBESPLINEINTERPOLATE\DEBUG\ASSEMBLYINFO.OBJ
^C:\USERS\HOME-PC\DOCUMENTS\VISUAL STUDIO 2015\PROJECTS\NEKKITEST2\CUBESPLINEINTERPOLATE\CUBESPLINEINTERPOLATE\ASSEMBLYINFO.CPP
C:\USERS\HOME-PC\DOCUMENTS\VISUAL STUDIO 2015\PROJECTS\NEKKITEST2\CUBESPLINEINTERPOLATE\CUBESPLINEINTERPOLATE\DEBUG\ASSEMBLYINFO.OBJ
^C:\USERS\HOME-PC\APPDATA\LOCAL\TEMP\.NETFRAMEWORK,VERSION=V4.5.2.ASSEMBLYATTRIBUTES.CPP
C:\USERS\HOME-PC\DOCUMENTS\VISUAL STUDIO 2015\PROJECTS\NEKKITEST2\CUBESPLINEINTERPOLATE\CUBESPLINEINTERPOLATE\DEBUG\VC140.PDB
C:\USERS\HOME-PC\DOCUMENTS\VISUAL STUDIO 2015\PROJECTS\NEKKITEST2\CUBESPLINEINTERPOLATE\CUBESPLINEINTERPOLATE\DEBUG\.NETFRAMEWORK,VERSION=V4.5.2.ASSEMBLYATTRIBUTES.OBJ
C:\USERS\HOME-PC\DOCUMENTS\VISUAL STUDIO 2015\PROJECTS\NEKKITEST2\CUBESPLINEINTERPOLATE\CUBESPLINEINTERPOLATE\DEBUG\.NETFRAMEWORK,VERSION=V4.5.2.ASSEMBLYATTRIBUTES.ASM
^C:\USERS\HOME-PC\DOCUMENTS\VISUAL STUDIO 2015\PROJECTS\NEKKITEST2\CUBESPLINEINTERPOLATE\CUBESPLINEINTERPOLATE\CUBESPLINEINTERPOLATE.CPP
C:\USERS\HOME-PC\DOCUMENTS\VISUAL STUDIO 2015\PROJECTS\NEKKITEST2\CUBESPLINEINTERPOLATE\CUBESPLINEINTERPOLATE\DEBUG\VC140.PDB
C:\USERS\HOME-PC\DOCUMENTS\VISUAL STUDIO 2015\PROJECTS\NEKKITEST2\CUBESPLINEINTERPOLATE\CUBESPLINEINTERPOLATE\DEBUG\CUBESPLINEINTERPOLATE.OBJ
^C:\USERS\HOME-PC\DOCUMENTS\VISUAL STUDIO 2015\PROJECTS\NEKKITEST2\NEKKITESTC\CUBESPLINEINTERPOLATE\CUBESPLINEINTERPOLATE\STDAFX.CPP
C:\USERS\HOME-PC\DOCUMENTS\VISUAL STUDIO 2015\PROJECTS\NEKKITEST2\NEKKITESTC\CUBESPLINEINTERPOLATE\CUBESPLINEINTERPOLATE\DEBUG\CUBESPLINEINTERPOLATE.PCH
C:\USERS\HOME-PC\DOCUMENTS\VISUAL STUDIO 2015\PROJECTS\NEKKITEST2\NEKKITESTC\CUBESPLINEINTERPOLATE\CUBESPLINEINTERPOLATE\DEBUG\VC140.PDB
C:\USERS\HOME-PC\DOCUMENTS\VISUAL STUDIO 2015\PROJECTS\NEKKITEST2\NEKKITESTC\CUBESPLINEINTERPOLATE\CUBESPLINEINTERPOLATE\DEBUG\STDAFX.OBJ
^C:\USERS\HOME-PC\DOCUMENTS\VISUAL STUDIO 2015\PROJECTS\NEKKITEST2\NEKKITESTC\CUBESPLINEINTERPOLATE\CUBESPLINEINTERPOLATE\ASSEMBLYINFO.CPP|C:\USERS\HOME-PC\DOCUMENTS\VISUAL STUDIO 2015\PROJECTS\NEKKITEST2\NEKKITESTC\CUBESPLINEINTERPOLATE\CUBESPLINEINTERPOLATE\CUBESPLINEINTERPOLATE.CPP
C:\USERS\HOME-PC\DOCUMENTS\VISUAL STUDIO 2015\PROJECTS\NEKKITEST2\NEKKITESTC\CUBESPLINEINTERPOLATE\CUBESPLINEINTERPOLATE\DEBUG\VC140.PDB
C:\USERS\HOME-PC\DOCUMENTS\VISUAL STUDIO 2015\PROJECTS\NEKKITEST2\NEKKITESTC\CUBESPLINEINTERPOLATE\CUBESPLINEINTERPOLATE\DEBUG\ASSEMBLYINFO.OBJ
^C:\USERS\HOME-PC\DOCUMENTS\VISUAL STUDIO 2015\PROJECTS\NEKKITEST2\NEKKITESTC\CUBESPLINEINTERPOLATE\CUBESPLINEINTERPOLATE\ASSEMBLYINFO.CPP
C:\USERS\HOME-PC\DOCUMENTS\VISUAL STUDIO 2015\PROJECTS\NEKKITEST2\NEKKITESTC\CUBESPLINEINTERPOLATE\CUBESPLINEINTERPOLATE\DEBUG\ASSEMBLYINFO.OBJ
^C:\USERS\HOME-PC\DOCUMENTS\VISUAL STUDIO 2015\PROJECTS\NEKKITEST2\NEKKITESTC\CUBESPLINEINTERPOLATE\CUBESPLINEINTERPOLATE\CUBESPLINEINTERPOLATE.CPP
C:\USERS\HOME-PC\DOCUMENTS\VISUAL STUDIO 2015\PROJECTS\NEKKITEST2\NEKKITESTC\CUBESPLINEINTERPOLATE\CUBESPLINEINTERPOLATE\DEBUG\VC140.PDB
C:\USERS\HOME-PC\DOCUMENTS\VISUAL STUDIO 2015\PROJECTS\NEKKITEST2\NEKKITESTC\CUBESPLINEINTERPOLATE\CUBESPLINEINTERPOLATE\DEBUG\CUBESPLINEINTERPOLATE.OBJ
