^C:\USERS\HOME-PC\DOCUMENTS\VISUAL STUDIO 2015\PROJECTS\NEKKITEST2\PROBLEM1\PROBLEM1\RELEASE\.NETFRAMEWORK,VERSION=V4.5.2.ASSEMBLYATTRIBUTES.OBJ|C:\USERS\HOME-PC\DOCUMENTS\VISUAL STUDIO 2015\PROJECTS\NEKKITEST2\PROBLEM1\PROBLEM1\RELEASE\MYFORM.OBJ
C:\USERS\HOME-PC\DOCUMENTS\VISUAL STUDIO 2015\PROJECTS\NEKKITEST2\PROBLEM1\RELEASE\PROBLEM1.EXE
C:\USERS\HOME-PC\DOCUMENTS\VISUAL STUDIO 2015\PROJECTS\NEKKITEST2\PROBLEM1\RELEASE\PROBLEM1.PDB
