^C:\Users\home-pc\Documents\Visual Studio 2015\Projects\nekkitest2\QuadInterpolate\QuadInterpolate\QuadInterpolate.vcxproj
C:\Users\home-pc\Documents\Visual Studio 2015\Projects\nekkitest2\QuadInterpolate\Debug\QuadInterpolate.lib
C:\Users\home-pc\Documents\Visual Studio 2015\Projects\nekkitest2\QuadInterpolate\Debug\QuadInterpolate.exp
^C:\Users\home-pc\Documents\Visual Studio 2015\Projects\nekkitest2\nekkitestc\QuadInterpolate\QuadInterpolate\QuadInterpolate.vcxproj
C:\Users\home-pc\Documents\Visual Studio 2015\Projects\nekkitest2\nekkitestc\QuadInterpolate\Debug\QuadInterpolate.lib
C:\Users\home-pc\Documents\Visual Studio 2015\Projects\nekkitest2\nekkitestc\QuadInterpolate\Debug\QuadInterpolate.exp
