^C:\USERS\HOME-PC\DOCUMENTS\VISUAL STUDIO 2015\PROJECTS\NEKKITEST2\QUADINTERPOLATE\QUADINTERPOLATE\APP.RC
C:\WINDOWS\GLOBALIZATION\SORTING\SORTDEFAULT.NLS
C:\USERS\HOME-PC\DOCUMENTS\VISUAL STUDIO 2015\PROJECTS\NEKKITEST2\QUADINTERPOLATE\QUADINTERPOLATE\RESOURCE.H
C:\USERS\HOME-PC\DOCUMENTS\VISUAL STUDIO 2015\PROJECTS\NEKKITEST2\QUADINTERPOLATE\QUADINTERPOLATE\APP.ICO
^C:\USERS\HOME-PC\DOCUMENTS\VISUAL STUDIO 2015\PROJECTS\NEKKITEST2\NEKKITESTC\QUADINTERPOLATE\QUADINTERPOLATE\APP.RC
C:\WINDOWS\GLOBALIZATION\SORTING\SORTDEFAULT.NLS
C:\USERS\HOME-PC\DOCUMENTS\VISUAL STUDIO 2015\PROJECTS\NEKKITEST2\NEKKITESTC\QUADINTERPOLATE\QUADINTERPOLATE\RESOURCE.H
C:\USERS\HOME-PC\DOCUMENTS\VISUAL STUDIO 2015\PROJECTS\NEKKITEST2\NEKKITESTC\QUADINTERPOLATE\QUADINTERPOLATE\APP.ICO
