^C:\Users\home-pc\Documents\Visual Studio 2015\Projects\nekkitest2\Problem1\Problem1\Problem1.vcxproj
C:\Users\home-pc\Documents\Visual Studio 2015\Projects\nekkitest2\Problem1\Problem1\Debug\Problem1.MyForm.resources
^C:\Users\home-pc\Documents\Visual Studio 2015\Projects\nekkitest2\Problem1\Problem1\Problem1.vcxproj
C:\Users\home-pc\Documents\Visual Studio 2015\Projects\nekkitest2\Problem1\Problem1\Debug\Problem1.MyForm.resources
^C:\Users\home-pc\Documents\Visual Studio 2015\Projects\nekkitest2\Problem1\Problem1\Problem1.vcxproj
C:\Users\home-pc\Documents\Visual Studio 2015\Projects\nekkitest2\Problem1\Problem1\Debug\Problem1.MyForm.resources
^C:\Users\home-pc\Documents\Visual Studio 2015\Projects\nekkitest2\Problem1\Problem1\Problem1.vcxproj
C:\Users\home-pc\Documents\Visual Studio 2015\Projects\nekkitest2\Problem1\Problem1\Debug\Problem1.MyForm.resources
^C:\Users\home-pc\Documents\Visual Studio 2015\Projects\nekkitest2\Problem1\Problem1\Problem1.vcxproj
C:\Users\home-pc\Documents\Visual Studio 2015\Projects\nekkitest2\Problem1\Problem1\Debug\Problem1.MyForm.resources
^C:\Users\home-pc\Documents\Visual Studio 2015\Projects\nekkitest2\Problem1\Problem1\Problem1.vcxproj
C:\Users\home-pc\Documents\Visual Studio 2015\Projects\nekkitest2\Problem1\Problem1\Debug\Problem1.MyForm.resources
^C:\Users\home-pc\Documents\Visual Studio 2015\Projects\nekkitest2\Problem1\Problem1\Problem1.vcxproj
C:\Users\home-pc\Documents\Visual Studio 2015\Projects\nekkitest2\Problem1\Problem1\Debug\Problem1.MyForm.resources
^C:\Users\home-pc\Documents\Visual Studio 2015\Projects\nekkitest2\Problem1\Problem1\Problem1.vcxproj
C:\Users\home-pc\Documents\Visual Studio 2015\Projects\nekkitest2\Problem1\Problem1\Debug\Problem1.MyForm.resources
^C:\Users\home-pc\Documents\Visual Studio 2015\Projects\nekkitest2\Problem1\Problem1\Problem1.vcxproj
C:\Users\home-pc\Documents\Visual Studio 2015\Projects\nekkitest2\Problem1\Problem1\Debug\Problem1.MyForm.resources
^C:\Users\home-pc\Documents\Visual Studio 2015\Projects\nekkitest2\Problem1\Problem1\Problem1.vcxproj
C:\Users\home-pc\Documents\Visual Studio 2015\Projects\nekkitest2\Problem1\Problem1\Debug\Problem1.MyForm.resources
^C:\Users\home-pc\Documents\Visual Studio 2015\Projects\nekkitest2\Problem1\Problem1\Problem1.vcxproj
C:\Users\home-pc\Documents\Visual Studio 2015\Projects\nekkitest2\Problem1\Problem1\Debug\Problem1.MyForm.resources
^C:\Users\home-pc\Documents\Visual Studio 2015\Projects\nekkitest2\Problem1\Problem1\Problem1.vcxproj
C:\Users\home-pc\Documents\Visual Studio 2015\Projects\nekkitest2\Problem1\Problem1\Debug\Problem1.MyForm.resources
^C:\Users\home-pc\Documents\Visual Studio 2015\Projects\nekkitest2\Problem1\Problem1\Problem1.vcxproj
C:\Users\home-pc\Documents\Visual Studio 2015\Projects\nekkitest2\Problem1\Problem1\Debug\Problem1.MyForm.resources
^C:\Users\home-pc\Documents\Visual Studio 2015\Projects\nekkitest2\Problem1\Problem1\Problem1.vcxproj
C:\Users\home-pc\Documents\Visual Studio 2015\Projects\nekkitest2\Problem1\Problem1\Debug\Problem1.MyForm.resources
^C:\Users\home-pc\Documents\Visual Studio 2015\Projects\nekkitest2\Problem1\Problem1\Problem1.vcxproj
C:\Users\home-pc\Documents\Visual Studio 2015\Projects\nekkitest2\Problem1\Problem1\Debug\Problem1.MyForm.resources
^C:\Users\home-pc\Documents\Visual Studio 2015\Projects\nekkitest2\Problem1\Problem1\Problem1.vcxproj
C:\Users\home-pc\Documents\Visual Studio 2015\Projects\nekkitest2\Problem1\Problem1\Debug\Problem1.MyForm.resources
^C:\Users\home-pc\Documents\Visual Studio 2015\Projects\nekkitest2\Problem1\Problem1\Problem1.vcxproj
C:\Users\home-pc\Documents\Visual Studio 2015\Projects\nekkitest2\Problem1\Problem1\Debug\Problem1.MyForm.resources
^C:\Users\home-pc\Documents\Visual Studio 2015\Projects\nekkitest2\Problem1\Problem1\Problem1.vcxproj
C:\Users\home-pc\Documents\Visual Studio 2015\Projects\nekkitest2\Problem1\Problem1\Debug\Problem1.MyForm.resources
^C:\Users\home-pc\Documents\Visual Studio 2015\Projects\nekkitest2\Problem1\Problem1\Problem1.vcxproj
C:\Users\home-pc\Documents\Visual Studio 2015\Projects\nekkitest2\Problem1\Problem1\Debug\Problem1.MyForm.resources
^C:\Users\home-pc\Documents\Visual Studio 2015\Projects\nekkitest2\Problem1\Problem1\Problem1.vcxproj
C:\Users\home-pc\Documents\Visual Studio 2015\Projects\nekkitest2\Problem1\Problem1\Debug\Problem1.MyForm.resources
^C:\Users\home-pc\Documents\Visual Studio 2015\Projects\nekkitest2\Problem1\Problem1\Problem1.vcxproj
C:\Users\home-pc\Documents\Visual Studio 2015\Projects\nekkitest2\Problem1\Problem1\Debug\Problem1.MyForm.resources
^C:\Users\home-pc\Documents\Visual Studio 2015\Projects\nekkitest2\Problem1\Problem1\Problem1.vcxproj
C:\Users\home-pc\Documents\Visual Studio 2015\Projects\nekkitest2\Problem1\Problem1\Debug\Problem1.MyForm.resources
^C:\Users\home-pc\Documents\Visual Studio 2015\Projects\nekkitest2\Problem1\Problem1\Problem1.vcxproj
C:\Users\home-pc\Documents\Visual Studio 2015\Projects\nekkitest2\Problem1\Problem1\Debug\Problem1.MyForm.resources
^C:\Users\home-pc\Documents\Visual Studio 2015\Projects\nekkitest2\Problem1\Problem1\Problem1.vcxproj
C:\Users\home-pc\Documents\Visual Studio 2015\Projects\nekkitest2\Problem1\Problem1\Debug\Problem1.MyForm.resources
^C:\Users\home-pc\Documents\Visual Studio 2015\Projects\nekkitest2\Problem1\Problem1\Problem1.vcxproj
C:\Users\home-pc\Documents\Visual Studio 2015\Projects\nekkitest2\Problem1\Problem1\Debug\Problem1.MyForm.resources
^C:\Users\home-pc\Documents\Visual Studio 2015\Projects\nekkitest2\Problem1\Problem1\Problem1.vcxproj
C:\Users\home-pc\Documents\Visual Studio 2015\Projects\nekkitest2\Problem1\Problem1\Debug\Problem1.MyForm.resources
^C:\Users\home-pc\Documents\Visual Studio 2015\Projects\nekkitest2\Problem1\Problem1\Problem1.vcxproj
C:\Users\home-pc\Documents\Visual Studio 2015\Projects\nekkitest2\Problem1\Problem1\Debug\Problem1.MyForm.resources
^C:\Users\home-pc\Documents\Visual Studio 2015\Projects\nekkitest2\Problem1\Problem1\Problem1.vcxproj
C:\Users\home-pc\Documents\Visual Studio 2015\Projects\nekkitest2\Problem1\Problem1\Debug\Problem1.MyForm.resources
^C:\Users\home-pc\Documents\Visual Studio 2015\Projects\nekkitest2\Problem1\Problem1\Problem1.vcxproj
C:\Users\home-pc\Documents\Visual Studio 2015\Projects\nekkitest2\Problem1\Problem1\Debug\Problem1.MyForm.resources
^C:\Users\home-pc\Documents\Visual Studio 2015\Projects\nekkitest2\Problem1\Problem1\Problem1.vcxproj
C:\Users\home-pc\Documents\Visual Studio 2015\Projects\nekkitest2\Problem1\Problem1\Debug\Problem1.MyForm.resources
^C:\Users\home-pc\Documents\Visual Studio 2015\Projects\nekkitest2\Problem1\Problem1\Problem1.vcxproj
C:\Users\home-pc\Documents\Visual Studio 2015\Projects\nekkitest2\Problem1\Problem1\Debug\Problem1.MyForm.resources
^C:\Users\home-pc\Documents\Visual Studio 2015\Projects\nekkitest2\Problem1\Problem1\Problem1.vcxproj
C:\Users\home-pc\Documents\Visual Studio 2015\Projects\nekkitest2\Problem1\Problem1\Debug\Problem1.MyForm.resources
^C:\Users\home-pc\Documents\Visual Studio 2015\Projects\nekkitest2\Problem1\Problem1\Problem1.vcxproj
C:\Users\home-pc\Documents\Visual Studio 2015\Projects\nekkitest2\Problem1\Problem1\Debug\Problem1.MyForm.resources
^C:\Users\home-pc\Documents\Visual Studio 2015\Projects\nekkitest2\Problem1\Problem1\Problem1.vcxproj
C:\Users\home-pc\Documents\Visual Studio 2015\Projects\nekkitest2\Problem1\Problem1\Debug\Problem1.MyForm.resources
^C:\Users\home-pc\Documents\Visual Studio 2015\Projects\nekkitest2\Problem1\Problem1\Problem1.vcxproj
C:\Users\home-pc\Documents\Visual Studio 2015\Projects\nekkitest2\Problem1\Problem1\Debug\Problem1.MyForm.resources
^C:\Users\home-pc\Documents\Visual Studio 2015\Projects\nekkitest2\Problem1\Problem1\Problem1.vcxproj
C:\Users\home-pc\Documents\Visual Studio 2015\Projects\nekkitest2\Problem1\Problem1\Debug\Problem1.MyForm.resources
^C:\Users\home-pc\Documents\Visual Studio 2015\Projects\nekkitest2\Problem1\Problem1\Problem1.vcxproj
C:\Users\home-pc\Documents\Visual Studio 2015\Projects\nekkitest2\Problem1\Problem1\Debug\Problem1.MyForm.resources
^C:\Users\home-pc\Documents\Visual Studio 2015\Projects\nekkitest2\Problem1\Problem1\Problem1.vcxproj
C:\Users\home-pc\Documents\Visual Studio 2015\Projects\nekkitest2\Problem1\Problem1\Debug\Problem1.MyForm.resources
^C:\Users\home-pc\Documents\Visual Studio 2015\Projects\nekkitest2\Problem1\Problem1\Problem1.vcxproj
C:\Users\home-pc\Documents\Visual Studio 2015\Projects\nekkitest2\Problem1\Problem1\Debug\Problem1.MyForm.resources
^C:\Users\home-pc\Documents\Visual Studio 2015\Projects\nekkitest2\Problem1\Problem1\Problem1.vcxproj
C:\Users\home-pc\Documents\Visual Studio 2015\Projects\nekkitest2\Problem1\Problem1\Debug\Problem1.MyForm.resources
^C:\Users\home-pc\Documents\Visual Studio 2015\Projects\nekkitest2\Problem1\Problem1\Problem1.vcxproj
C:\Users\home-pc\Documents\Visual Studio 2015\Projects\nekkitest2\Problem1\Problem1\Debug\Problem1.MyForm.resources
^C:\Users\home-pc\Documents\Visual Studio 2015\Projects\nekkitest2\Problem1\Problem1\Problem1.vcxproj
C:\Users\home-pc\Documents\Visual Studio 2015\Projects\nekkitest2\Problem1\Problem1\Debug\Problem1.MyForm.resources
^C:\Users\home-pc\Documents\Visual Studio 2015\Projects\nekkitest2\Problem1\Problem1\Problem1.vcxproj
C:\Users\home-pc\Documents\Visual Studio 2015\Projects\nekkitest2\Problem1\Problem1\Debug\Problem1.MyForm.resources
^C:\Users\home-pc\Documents\Visual Studio 2015\Projects\nekkitest2\Problem1\Problem1\Problem1.vcxproj
C:\Users\home-pc\Documents\Visual Studio 2015\Projects\nekkitest2\Problem1\Problem1\Debug\Problem1.MyForm.resources
^C:\Users\home-pc\Documents\Visual Studio 2015\Projects\nekkitest2\Problem1\Problem1\Problem1.vcxproj
C:\Users\home-pc\Documents\Visual Studio 2015\Projects\nekkitest2\Problem1\Problem1\Debug\Problem1.MyForm.resources
^C:\Users\home-pc\Documents\Visual Studio 2015\Projects\nekkitest2\Problem1\Problem1\Problem1.vcxproj
C:\Users\home-pc\Documents\Visual Studio 2015\Projects\nekkitest2\Problem1\Problem1\Debug\Problem1.MyForm.resources
^C:\Users\home-pc\Documents\Visual Studio 2015\Projects\nekkitest2\Problem1\Problem1\Problem1.vcxproj
C:\Users\home-pc\Documents\Visual Studio 2015\Projects\nekkitest2\Problem1\Problem1\Debug\Problem1.MyForm.resources
^C:\Users\home-pc\Documents\Visual Studio 2015\Projects\nekkitest2\Problem1\Problem1\Problem1.vcxproj
C:\Users\home-pc\Documents\Visual Studio 2015\Projects\nekkitest2\Problem1\Problem1\Debug\Problem1.MyForm.resources
^C:\Users\home-pc\Documents\Visual Studio 2015\Projects\nekkitest2\Problem1\Problem1\Problem1.vcxproj
C:\Users\home-pc\Documents\Visual Studio 2015\Projects\nekkitest2\Problem1\Problem1\Debug\Problem1.MyForm.resources
^C:\Users\home-pc\Documents\Visual Studio 2015\Projects\nekkitest2\Problem1\Problem1\Problem1.vcxproj
C:\Users\home-pc\Documents\Visual Studio 2015\Projects\nekkitest2\Problem1\Problem1\Debug\Problem1.MyForm.resources
^C:\Users\home-pc\Documents\Visual Studio 2015\Projects\nekkitest2\Problem1\Problem1\Problem1.vcxproj
C:\Users\home-pc\Documents\Visual Studio 2015\Projects\nekkitest2\Problem1\Problem1\Debug\Problem1.MyForm.resources
^C:\Users\home-pc\Documents\Visual Studio 2015\Projects\nekkitest2\Problem1\Problem1\Problem1.vcxproj
C:\Users\home-pc\Documents\Visual Studio 2015\Projects\nekkitest2\Problem1\Problem1\Debug\Problem1.MyForm.resources
^C:\Users\home-pc\Documents\Visual Studio 2015\Projects\nekkitest2\Problem1\Problem1\Problem1.vcxproj
C:\Users\home-pc\Documents\Visual Studio 2015\Projects\nekkitest2\Problem1\Problem1\Debug\Problem1.MyForm.resources
^C:\Users\home-pc\Documents\Visual Studio 2015\Projects\nekkitest2\Problem1\Problem1\Problem1.vcxproj
C:\Users\home-pc\Documents\Visual Studio 2015\Projects\nekkitest2\Problem1\Problem1\Debug\Problem1.MyForm.resources
^C:\Users\home-pc\Documents\Visual Studio 2015\Projects\nekkitest2\Problem1\Problem1\Problem1.vcxproj
C:\Users\home-pc\Documents\Visual Studio 2015\Projects\nekkitest2\Problem1\Problem1\Debug\Problem1.MyForm.resources
^C:\Users\home-pc\Documents\Visual Studio 2015\Projects\nekkitest2\Problem1\Problem1\Problem1.vcxproj
C:\Users\home-pc\Documents\Visual Studio 2015\Projects\nekkitest2\Problem1\Problem1\Debug\Problem1.MyForm.resources
^C:\Users\home-pc\Documents\Visual Studio 2015\Projects\nekkitest2\Problem1\Problem1\Problem1.vcxproj
C:\Users\home-pc\Documents\Visual Studio 2015\Projects\nekkitest2\Problem1\Problem1\Debug\Problem1.MyForm.resources
^C:\Users\home-pc\Documents\Visual Studio 2015\Projects\nekkitest2\Problem1\Problem1\Problem1.vcxproj
C:\Users\home-pc\Documents\Visual Studio 2015\Projects\nekkitest2\Problem1\Problem1\Debug\Problem1.MyForm.resources
^C:\Users\home-pc\Documents\Visual Studio 2015\Projects\nekkitest2\Problem1\Problem1\Problem1.vcxproj
C:\Users\home-pc\Documents\Visual Studio 2015\Projects\nekkitest2\Problem1\Problem1\Debug\Problem1.MyForm.resources
^C:\Users\home-pc\Documents\Visual Studio 2015\Projects\nekkitest2\Problem1\Problem1\Problem1.vcxproj
C:\Users\home-pc\Documents\Visual Studio 2015\Projects\nekkitest2\Problem1\Problem1\Debug\Problem1.MyForm.resources
^C:\Users\home-pc\Documents\Visual Studio 2015\Projects\nekkitest2\Problem1\Problem1\Problem1.vcxproj
C:\Users\home-pc\Documents\Visual Studio 2015\Projects\nekkitest2\Problem1\Problem1\Debug\Problem1.MyForm.resources
^C:\Users\home-pc\Documents\Visual Studio 2015\Projects\nekkitest2\Problem1\Problem1\Problem1.vcxproj
C:\Users\home-pc\Documents\Visual Studio 2015\Projects\nekkitest2\Problem1\Problem1\Debug\Problem1.MyForm.resources
^C:\Users\home-pc\Documents\Visual Studio 2015\Projects\nekkitest2\Problem1\Problem1\Problem1.vcxproj
C:\Users\home-pc\Documents\Visual Studio 2015\Projects\nekkitest2\Problem1\Problem1\Debug\Problem1.MyForm.resources
^C:\Users\home-pc\Documents\Visual Studio 2015\Projects\nekkitest2\Problem1\Problem1\Problem1.vcxproj
C:\Users\home-pc\Documents\Visual Studio 2015\Projects\nekkitest2\Problem1\Problem1\Debug\Problem1.MyForm.resources
^C:\Users\home-pc\Documents\Visual Studio 2015\Projects\nekkitest2\Problem1\Problem1\Problem1.vcxproj
C:\Users\home-pc\Documents\Visual Studio 2015\Projects\nekkitest2\Problem1\Problem1\Debug\Problem1.MyForm.resources
^C:\Users\home-pc\Documents\Visual Studio 2015\Projects\nekkitest2\Problem1\Problem1\Problem1.vcxproj
C:\Users\home-pc\Documents\Visual Studio 2015\Projects\nekkitest2\Problem1\Problem1\Debug\Problem1.MyForm.resources
^C:\Users\home-pc\Documents\Visual Studio 2015\Projects\nekkitest2\Problem1\Problem1\Problem1.vcxproj
C:\Users\home-pc\Documents\Visual Studio 2015\Projects\nekkitest2\Problem1\Problem1\Debug\Problem1.MyForm.resources
^C:\Users\home-pc\Documents\Visual Studio 2015\Projects\nekkitest2\Problem1\Problem1\Problem1.vcxproj
C:\Users\home-pc\Documents\Visual Studio 2015\Projects\nekkitest2\Problem1\Problem1\Debug\Problem1.MyForm.resources
^C:\Users\home-pc\Documents\Visual Studio 2015\Projects\nekkitest2\Problem1\Problem1\Problem1.vcxproj
C:\Users\home-pc\Documents\Visual Studio 2015\Projects\nekkitest2\Problem1\Problem1\Debug\Problem1.MyForm.resources
^C:\Users\home-pc\Documents\Visual Studio 2015\Projects\nekkitest2\Problem1\Problem1\Problem1.vcxproj
C:\Users\home-pc\Documents\Visual Studio 2015\Projects\nekkitest2\Problem1\Problem1\Debug\Problem1.MyForm.resources
^C:\Users\home-pc\Documents\Visual Studio 2015\Projects\nekkitest2\Problem1\Problem1\Problem1.vcxproj
C:\Users\home-pc\Documents\Visual Studio 2015\Projects\nekkitest2\Problem1\Problem1\Debug\Problem1.MyForm.resources
^C:\Users\home-pc\Documents\Visual Studio 2015\Projects\nekkitest2\Problem1\Problem1\Problem1.vcxproj
C:\Users\home-pc\Documents\Visual Studio 2015\Projects\nekkitest2\Problem1\Problem1\Debug\Problem1.MyForm.resources
^C:\Users\home-pc\Documents\Visual Studio 2015\Projects\nekkitest2\Problem1\Problem1\Problem1.vcxproj
C:\Users\home-pc\Documents\Visual Studio 2015\Projects\nekkitest2\Problem1\Problem1\Debug\Problem1.MyForm.resources
^C:\Users\home-pc\Documents\Visual Studio 2015\Projects\nekkitest2\Problem1\Problem1\Problem1.vcxproj
C:\Users\home-pc\Documents\Visual Studio 2015\Projects\nekkitest2\Problem1\Problem1\Debug\Problem1.MyForm.resources
^C:\Users\home-pc\Documents\Visual Studio 2015\Projects\nekkitest2\Problem1\Problem1\Problem1.vcxproj
C:\Users\home-pc\Documents\Visual Studio 2015\Projects\nekkitest2\Problem1\Problem1\Debug\Problem1.MyForm.resources
^C:\Users\home-pc\Documents\Visual Studio 2015\Projects\nekkitest2\Problem1\Problem1\Problem1.vcxproj
C:\Users\home-pc\Documents\Visual Studio 2015\Projects\nekkitest2\Problem1\Problem1\Debug\Problem1.MyForm.resources
^C:\Users\home-pc\Documents\Visual Studio 2015\Projects\nekkitest2\Problem1\Problem1\Problem1.vcxproj
C:\Users\home-pc\Documents\Visual Studio 2015\Projects\nekkitest2\Problem1\Problem1\Debug\Problem1.MyForm.resources
^C:\Users\home-pc\Documents\Visual Studio 2015\Projects\nekkitest2\Problem1\Problem1\Problem1.vcxproj
C:\Users\home-pc\Documents\Visual Studio 2015\Projects\nekkitest2\Problem1\Problem1\Debug\Problem1.MyForm.resources
^C:\Users\home-pc\Documents\Visual Studio 2015\Projects\nekkitest2\Problem1\Problem1\Problem1.vcxproj
C:\Users\home-pc\Documents\Visual Studio 2015\Projects\nekkitest2\Problem1\Problem1\Debug\Problem1.MyForm.resources
^C:\Users\home-pc\Documents\Visual Studio 2015\Projects\nekkitest2\Problem1\Problem1\Problem1.vcxproj
C:\Users\home-pc\Documents\Visual Studio 2015\Projects\nekkitest2\Problem1\Problem1\Debug\Problem1.MyForm.resources
^C:\Users\home-pc\Documents\Visual Studio 2015\Projects\nekkitest2\Problem1\Problem1\Problem1.vcxproj
C:\Users\home-pc\Documents\Visual Studio 2015\Projects\nekkitest2\Problem1\Problem1\Debug\Problem1.MyForm.resources
^C:\Users\home-pc\Documents\Visual Studio 2015\Projects\nekkitest2\Problem1\Problem1\Problem1.vcxproj
C:\Users\home-pc\Documents\Visual Studio 2015\Projects\nekkitest2\Problem1\Problem1\Debug\Problem1.MyForm.resources
^C:\Users\home-pc\Documents\Visual Studio 2015\Projects\nekkitest2\Problem1\Problem1\Problem1.vcxproj
C:\Users\home-pc\Documents\Visual Studio 2015\Projects\nekkitest2\Problem1\Problem1\Debug\Problem1.MyForm.resources
^C:\Users\home-pc\Documents\Visual Studio 2015\Projects\nekkitest2\Problem1\Problem1\Problem1.vcxproj
C:\Users\home-pc\Documents\Visual Studio 2015\Projects\nekkitest2\Problem1\Problem1\Debug\Problem1.MyForm.resources
^C:\Users\home-pc\Documents\Visual Studio 2015\Projects\nekkitest2\nekkitestc\Problem1\Problem1\Problem1.vcxproj
C:\Users\home-pc\Documents\Visual Studio 2015\Projects\nekkitest2\nekkitestc\Problem1\Problem1\Debug\Problem1.MyForm.resources
^C:\Users\home-pc\Documents\Visual Studio 2015\Projects\nekkitest2\nekkitestc\Problem1\Problem1\Problem1.vcxproj
C:\Users\home-pc\Documents\Visual Studio 2015\Projects\nekkitest2\nekkitestc\Problem1\Problem1\Debug\Problem1.MyForm.resources
^C:\Users\home-pc\Documents\Visual Studio 2015\Projects\nekkitest2\nekkitestc\Problem1\Problem1\Problem1.vcxproj
C:\Users\home-pc\Documents\Visual Studio 2015\Projects\nekkitest2\nekkitestc\Problem1\Problem1\Debug\Problem1.MyForm.resources
^C:\Users\home-pc\Documents\Visual Studio 2015\Projects\nekkitest2\nekkitestc\Problem1\Problem1\Problem1.vcxproj
C:\Users\home-pc\Documents\Visual Studio 2015\Projects\nekkitest2\nekkitestc\Problem1\Problem1\Debug\Problem1.MyForm.resources
^C:\Users\home-pc\Documents\Visual Studio 2015\Projects\nekkitest2\nekkitestc\Problem1\Problem1\Problem1.vcxproj
C:\Users\home-pc\Documents\Visual Studio 2015\Projects\nekkitest2\nekkitestc\Problem1\Problem1\Debug\Problem1.MyForm.resources
